<?xml version="1.0" encoding="utf-8"?>
<!-- Generator: Adobe Illustrator 12.0.0, SVG Export Plug-In . SVG Version: 6.00 Build 51448)  -->
<!DOCTYPE svg PUBLIC "-//W3C//DTD SVG 1.0//EN" "http://www.w3.org/TR/2001/REC-SVG-20010904/DTD/svg10.dtd" [
	<!ENTITY ns_svg "http://www.w3.org/2000/svg">
	<!ENTITY ns_xlink "http://www.w3.org/1999/xlink">
]>
<svg  version="1.0" id="Layer_1" xmlns="&ns_svg;" xmlns:xlink="&ns_xlink;" width="66.25" height="66.25"
	 viewBox="0 0 66.25 66.25" overflow="visible" enable-background="new 0 0 66.25 66.25" xml:space="preserve">
<path fill="#666666" d="M49.694,6.25H19.208v5.958H9.291V6.301C4.075,6.813,0,11.207,0,16.556v39.385
	C0,61.634,4.615,66.25,10.309,66.25h39.384C55.384,66.25,60,61.634,60,55.941V16.556C60,10.863,55.387,6.25,49.694,6.25z"/>
<path fill="#3F3F3F" d="M55.943,0H16.559c-5.694,0-10.31,4.613-10.31,10.307v39.384C6.249,55.385,10.864,60,16.559,60h39.385
	c5.692,0,10.306-4.615,10.306-10.309V10.307C66.25,4.613,61.637,0,55.943,0L55.943,0z M16.559,59c-5.133,0-9.31-4.176-9.31-9.309
	V10.307C7.249,5.175,11.426,1,16.559,1h39.385c5.132,0,9.306,4.175,9.306,9.307v39.384c0,5.133-4.174,9.309-9.306,9.309H16.559
	L16.559,59z"/>
<rect x="16.424" y="53.063" width="1.938" height="6.367"/>
<path fill="#B2B2B2" d="M55.944,0.499H16.559V0.5c-5.408,0-9.809,4.399-9.809,9.807v39.384c0,5.41,4.4,9.81,9.809,9.81h39.385
	c5.407,0,9.808-4.399,9.808-9.81V10.306C65.751,4.899,61.351,0.499,55.944,0.499z M17.315,8.924c0,0.85-0.689,1.54-1.54,1.54h-3.799
	c-0.851,0-1.54-0.689-1.54-1.54v-3.8c0-0.85,0.689-1.54,1.54-1.54h3.799c0.851,0,1.54,0.689,1.54,1.54V8.924z"/>
<path fill="#666666" d="M43.32,24.71c2.805,8.987-2.207,18.552-11.198,21.356c-8.993,2.808-18.557-2.209-21.36-11.196
	c-2.807-8.994,2.207-18.555,11.199-21.362C30.952,10.703,40.514,15.717,43.32,24.71z"/>
<path fill="#D1D1D1" d="M44.996,23.093c2.808,8.993-2.205,18.556-11.199,21.361c-8.987,2.805-18.552-2.208-21.358-11.201
	c-2.805-8.987,2.211-18.552,11.198-21.357C32.63,9.089,42.192,14.106,44.996,23.093z"/>
<path fill="none" stroke="#E2E2E2" stroke-width="2" d="M43.167,23.664c2.49,7.983-1.959,16.471-9.94,18.961
	c-7.979,2.49-16.469-1.959-18.96-9.943c-2.489-7.978,1.963-16.467,9.94-18.958C32.19,11.233,40.679,15.687,43.167,23.664z"/>
<circle fill="none" stroke="#E2E2E2" stroke-width="2" cx="28.717" cy="28.174" r="8.774"/>
<circle fill="#54D3D6" cx="28.264" cy="28.492" r="4.93"/>
<path fill="#24A8A8" d="M32.325,31.098c-1.925,1.925-5.046,1.924-6.972-0.001c-1.55-1.55-1.85-3.872-0.906-5.725
	c-1.586,1.937-1.478,4.799,0.33,6.607c1.926,1.925,5.047,1.927,6.973,0.002c0.376-0.376,0.676-0.799,0.904-1.248
	C32.552,30.858,32.443,30.979,32.325,31.098z"/>
<circle fill="#FFFFFF" cx="30.558" cy="25.512" r="0.614"/>
<polygon fill="none" stroke="#047391" points="25.637,29.746 24.916,28.497 25.637,27.248 27.08,27.248 27.801,28.497 27.08,29.746 
	"/>
<polygon fill="none" stroke="#047391" points="27.801,28.497 27.08,27.248 27.801,25.999 29.243,25.999 29.965,27.248 
	29.243,28.497 "/>
<polygon fill="none" stroke="#047391" points="27.801,30.995 27.08,29.746 27.801,28.497 29.243,28.497 29.965,29.746 
	29.243,30.995 "/>
<polygon fill="none" stroke="#047391" points="29.965,29.746 29.243,28.497 29.965,27.248 31.406,27.248 32.127,28.497 
	31.406,29.746 "/>
<path fill="#666666" d="M28.6,21.419c-2.013,0-3.81,0.903-5.017,2.323c1.149-0.979,2.636-1.57,4.262-1.57
	c3.638,0,6.587,2.948,6.587,6.584c0,1.628-0.593,3.114-1.57,4.264c1.421-1.207,2.322-3.004,2.322-5.016
	C35.184,24.368,32.235,21.419,28.6,21.419z"/>
<path fill="#666666" d="M28.472,15.038c-4.093,0-7.749,1.837-10.204,4.726c2.338-1.992,5.361-3.195,8.67-3.195
	c7.401,0,13.399,5.998,13.399,13.396c0,3.312-1.205,6.335-3.194,8.674c2.89-2.455,4.726-6.112,4.726-10.205
	C41.867,21.036,35.869,15.038,28.472,15.038z"/>
<polygon fill="#666666" points="61.38,11.339 59.414,18.686 52.067,20.654 46.689,15.276 48.658,7.931 56.003,5.961 "/>
<path fill="#D1D1D1" d="M51.146,6.258c-0.133,0.496-1.688,6.292-1.818,6.788c0.362,0.363,4.605,4.607,4.969,4.97
	c0.496-0.133,6.293-1.687,6.789-1.819c0.133-0.496,1.686-6.293,1.817-6.789c-0.362-0.363-4.604-4.606-4.969-4.97
	C57.438,4.571,51.643,6.125,51.146,6.258z"/>
<path fill="#666666" d="M58.083,3.881l-7.346,1.97l-1.968,7.345l5.378,5.378l7.344-1.969l1.969-7.346L58.083,3.881L58.083,3.881z
	 M51.554,6.667l6.232-1.671l4.559,4.561l-1.67,6.231l-6.229,1.67l-4.563-4.561L51.554,6.667L51.554,6.667z"/>
<path fill="#D1D1D1" d="M53.548,8.66c-0.12,0.448-0.819,3.059-0.939,3.507c0.328,0.328,2.24,2.24,2.568,2.568
	c0.447-0.12,3.058-0.82,3.507-0.94c0.119-0.448,0.817-3.059,0.938-3.507c-0.328-0.328-2.24-2.24-2.567-2.568
	C56.608,7.84,53.996,8.54,53.548,8.66z"/>
<path fill="#666666" d="M57.205,7.163L53.14,8.252l-1.09,4.065l2.978,2.976l4.065-1.089l1.088-4.065L57.205,7.163L57.205,7.163z
	 M53.957,9.068l2.948-0.79l2.16,2.159l-0.791,2.95l-2.948,0.791l-2.16-2.16L53.957,9.068L53.957,9.068z"/>
<polygon fill="#666666" points="56.755,8.843 54.371,9.482 54.207,10.095 55.979,9.62 57.725,11.366 57.25,13.138 57.862,12.974 
	58.5,10.589 "/>
<polygon fill="#666666" points="59.091,14.204 61.494,16.605 54.147,18.574 48.77,13.195 50.738,5.85 53.14,8.252 52.05,12.317 
	55.027,15.293 "/>
<polygon fill="#E2E2E2" points="57.207,7.162 58.083,3.881 63.46,9.259 60.18,10.139 "/>
<polygon fill="#666666" points="61.38,29.186 59.414,36.531 52.067,38.5 46.689,33.122 48.658,25.776 56.003,23.808 "/>
<path fill="#D1D1D1" d="M51.146,24.104c-0.133,0.496-1.688,6.292-1.818,6.787c0.362,0.363,4.605,4.607,4.969,4.97
	c0.496-0.133,6.293-1.687,6.789-1.818c0.133-0.496,1.686-6.293,1.817-6.789c-0.362-0.363-4.604-4.606-4.969-4.97
	C57.438,22.417,51.643,23.972,51.146,24.104z"/>
<path fill="#666666" d="M58.083,21.727l-7.346,1.97l-1.968,7.345l5.378,5.378l7.344-1.968l1.969-7.347L58.083,21.727L58.083,21.727z
	 M51.554,24.514l6.232-1.671l4.559,4.561l-1.67,6.232l-6.229,1.669l-4.563-4.562L51.554,24.514L51.554,24.514z"/>
<path fill="#D1D1D1" d="M53.548,26.506c-0.12,0.448-0.819,3.06-0.939,3.508c0.328,0.328,2.24,2.239,2.568,2.567
	c0.447-0.12,3.058-0.819,3.507-0.939c0.119-0.448,0.817-3.06,0.938-3.508c-0.328-0.328-2.24-2.24-2.567-2.568
	C56.608,25.686,53.996,26.386,53.548,26.506z"/>
<path fill="#666666" d="M57.205,25.008l-4.064,1.09l-1.09,4.066l2.978,2.975l4.065-1.089l1.088-4.065L57.205,25.008L57.205,25.008z
	 M53.957,26.915l2.948-0.791l2.16,2.16l-0.791,2.95l-2.948,0.79l-2.16-2.158L53.957,26.915L53.957,26.915z"/>
<polygon fill="#666666" points="56.755,26.689 54.371,27.328 54.207,27.94 55.979,27.466 57.725,29.212 57.25,30.983 57.862,30.819 
	58.5,28.435 "/>
<polygon fill="#666666" points="59.091,32.05 61.494,34.451 54.147,36.42 48.77,31.041 50.738,23.696 53.14,26.098 52.05,30.163 
	55.027,33.139 "/>
<polygon fill="#E2E2E2" points="57.207,25.008 58.083,21.727 63.46,27.104 60.18,27.984 "/>
<polygon fill="#666666" points="61.38,47.031 59.414,54.377 52.067,56.346 46.689,50.968 48.658,43.623 56.003,41.652 "/>
<path fill="#D1D1D1" d="M51.146,41.95c-0.133,0.495-1.688,6.292-1.818,6.788c0.362,0.363,4.605,4.606,4.969,4.97
	c0.496-0.133,6.293-1.687,6.789-1.819c0.133-0.496,1.686-6.293,1.817-6.789c-0.362-0.363-4.604-4.605-4.969-4.97
	C57.438,40.264,51.643,41.816,51.146,41.95z"/>
<path fill="#666666" d="M58.083,39.573l-7.346,1.969l-1.968,7.347l5.378,5.377l7.344-1.969l1.969-7.346L58.083,39.573L58.083,39.573
	z M51.554,42.357l6.232-1.67l4.559,4.562l-1.67,6.231l-6.229,1.67l-4.563-4.562L51.554,42.357L51.554,42.357z"/>
<path fill="#D1D1D1" d="M53.548,44.352c-0.12,0.448-0.819,3.06-0.939,3.508c0.328,0.328,2.24,2.24,2.568,2.567
	c0.447-0.12,3.058-0.819,3.507-0.94c0.119-0.447,0.817-3.059,0.938-3.506c-0.328-0.328-2.24-2.24-2.567-2.568
	C56.608,43.532,53.996,44.232,53.548,44.352z"/>
<path fill="#666666" d="M57.205,42.855l-4.064,1.088l-1.09,4.065l2.978,2.976l4.065-1.088l1.088-4.065L57.205,42.855L57.205,42.855z
	 M53.957,44.761l2.948-0.791l2.16,2.159l-0.791,2.95l-2.948,0.79l-2.16-2.159L53.957,44.761L53.957,44.761z"/>
<polygon fill="#666666" points="56.755,44.535 54.371,45.174 54.207,45.787 55.979,45.313 57.725,47.059 57.25,48.83 57.862,48.666 
	58.5,46.281 "/>
<polygon fill="#666666" points="59.091,49.896 61.494,52.297 54.147,54.266 48.77,48.887 50.738,41.542 53.14,43.943 52.05,48.009 
	55.027,50.984 "/>
<polygon fill="#E2E2E2" points="57.207,42.854 58.083,39.573 63.46,44.951 60.18,45.831 "/>
<polygon fill="#666666" points="42.68,51.18 41.33,56.215 36.296,57.564 32.609,53.878 33.958,48.844 38.994,47.494 "/>
<path fill="#D1D1D1" d="M36.617,47.002c-0.125,0.468-1.074,4.008-1.199,4.477c0.342,0.344,2.936,2.936,3.277,3.278
	c0.469-0.125,4.008-1.073,4.477-1.2c0.127-0.468,1.074-4.009,1.201-4.477c-0.344-0.344-2.936-2.936-3.277-3.278
	C40.626,45.927,37.085,46.876,36.617,47.002z"/>
<path fill="#666666" d="M41.244,45.245l-5.035,1.349l-1.35,5.034l3.686,3.687l5.035-1.35l1.351-5.033L41.244,45.245L41.244,45.245z
	 M37.025,47.411l3.919-1.05l2.869,2.869l-1.051,3.918l-3.919,1.051l-2.869-2.869L37.025,47.411L37.025,47.411z"/>
<polygon fill="#666666" points="40.687,47.326 37.732,48.117 37.529,48.876 39.725,48.288 41.887,50.45 41.298,52.645 
	42.057,52.441 42.848,49.488 "/>
<rect x="20.845" y="0.22" width="1.938" height="6.368"/>
<rect x="24.721" y="0.22" width="1.938" height="6.368"/>
<rect x="31.47" y="0.22" width="1.938" height="6.368"/>
<rect x="35.346" y="0.22" width="1.938" height="6.368"/>
<rect x="42.095" y="0.22" width="1.938" height="6.368"/>
<rect x="45.971" y="0.22" width="1.938" height="6.368"/>
</svg>
