<?xml version="1.0" encoding="utf-8"?>
<!-- Generator: Adobe Illustrator 12.0.0, SVG Export Plug-In . SVG Version: 6.00 Build 51448)  -->
<!DOCTYPE svg PUBLIC "-//W3C//DTD SVG 1.0//EN" "http://www.w3.org/TR/2001/REC-SVG-20010904/DTD/svg10.dtd" [
	<!ENTITY ns_svg "http://www.w3.org/2000/svg">
	<!ENTITY ns_xlink "http://www.w3.org/1999/xlink">
]>
<svg  version="1.0" id="Layer_1" xmlns="&ns_svg;" xmlns:xlink="&ns_xlink;" width="143.355" height="215.602"
	 viewBox="0 0 143.355 215.602" overflow="visible" enable-background="new 0 0 143.355 215.602" xml:space="preserve">
<g>
	<path fill="#8B5C29" stroke="#000000" stroke-width="3.4108" d="M103.797,55.383v7.758H38.213v-7.702
		c-7.72,0.818-13.735,7.348-13.735,15.285v50.386c0,8.491,6.883,15.373,15.374,15.373h63.268c8.489,0,15.374-6.882,15.374-15.373
		h0.001V70.723C118.494,62.461,111.97,55.74,103.797,55.383z"/>
	<path fill="#D59758" stroke="#000000" stroke-width="3" d="M34.679,25.707c-3.751,0-6.791,3.041-6.791,6.792v8.132
		c0,3.75,3.04,6.791,6.791,6.791h2.997V25.707H34.679z"/>
	<path fill="#D59758" stroke="#000000" stroke-width="3" d="M108.292,25.707c3.75,0,6.792,3.041,6.792,6.792v8.132
		c0,3.75-3.042,6.791-6.792,6.791h-2.998V25.707H108.292z"/>
	<path fill="#E4BC96" stroke="#000000" stroke-width="3.4555" d="M30.835,187.972c0,3.61,6.037,6.539,13.483,6.539h9.707
		c7.447,0,13.484-2.929,13.484-6.539v-21.437c0-3.612-6.037-6.54-13.484-6.54h-9.707c-7.446,0-13.483,2.928-13.483,6.54V187.972z"/>
	<path fill="#E4BC96" stroke="#000000" stroke-width="3" d="M34.149,161.476c0,4.608,5.807,8.345,12.969,8.345h9.333
		c7.161,0,12.968-3.735,12.968-8.345v-27.349c0-4.607-5.807-8.344-12.968-8.344h-9.333c-7.162,0-12.969,3.735-12.969,8.344V161.476z
		"/>
	<path fill="#8B5C29" stroke="#000000" stroke-width="3.1203" d="M65.871,212.001c0,1.125-6.053,2.039-13.516,2.039h-9.729
		c-7.463,0-13.516-0.914-13.516-2.039v-6.684c0-1.126,6.053-2.039,13.516-2.039h9.729c7.463,0,13.516,0.913,13.516,2.039V212.001z"
		/>
	<path fill="#D59758" stroke="#000000" stroke-width="3.662" d="M31.245,201.994c0-6.572,4.551-11.902,10.163-11.902h12.168
		c5.611,0,10.16,5.33,10.16,11.902v5.252H31.245V201.994z"/>
	<path fill="#E4BC96" stroke="#000000" stroke-width="3.4555" d="M112.323,187.972c0,3.61-6.038,6.539-13.485,6.539h-9.706
		c-7.447,0-13.484-2.929-13.484-6.539v-21.437c0-3.612,6.037-6.54,13.484-6.54h9.706c7.447,0,13.485,2.928,13.485,6.54V187.972z"/>
	<path fill="#E4BC96" stroke="#000000" stroke-width="3" d="M109.009,161.476c0,4.608-5.806,8.345-12.967,8.345h-9.334
		c-7.162,0-12.967-3.735-12.967-8.345v-27.349c0-4.607,5.805-8.344,12.967-8.344h9.334c7.161,0,12.967,3.735,12.967,8.344V161.476z"
		/>
	<path fill="#8B5C29" stroke="#000000" stroke-width="3.1203" d="M114.856,212.001c0,1.125-6.051,2.039-13.515,2.039h-9.729
		c-7.465,0-13.515-0.914-13.515-2.039v-6.684c0-1.126,6.05-2.039,13.515-2.039h9.729c7.464,0,13.515,0.913,13.515,2.039V212.001z"/>
	<path fill="#D59758" stroke="#000000" stroke-width="3.662" d="M80.231,201.994c0-6.572,4.551-11.902,10.162-11.902h12.168
		c5.613,0,10.162,5.33,10.162,11.902v5.252H80.231V201.994z"/>
	<ellipse fill="#5A3D1C" stroke="#000000" stroke-width="3" cx="50.635" cy="166.53" rx="14.591" ry="15.112"/>
	<ellipse fill="#5A3D1C" stroke="#000000" stroke-width="3" cx="92.522" cy="166.53" rx="14.592" ry="15.112"/>
	
		<line fill="none" stroke="#FFFFFF" stroke-width="6" stroke-linecap="round" stroke-linejoin="round" x1="53.046" y1="157.529" x2="58.05" y2="162.534"/>
	
		<line fill="none" stroke="#FFFFFF" stroke-width="6" stroke-linecap="round" stroke-linejoin="round" x1="94.735" y1="157.529" x2="99.74" y2="162.534"/>
	<circle fill="#E4BC96" stroke="#000000" stroke-width="3" cx="14.702" cy="139.431" r="13.202"/>
	
		<ellipse transform="matrix(0.4103 -0.9119 0.9119 0.4103 -127.8958 99.4874)" fill="#E4BC96" stroke="#000000" stroke-width="3" cx="12.984" cy="148.643" rx="4.105" ry="9.852"/>
	<ellipse fill="#E4BC96" stroke="#000000" stroke-width="3" cx="21.65" cy="147.075" rx="4.344" ry="8.859"/>
	<circle fill="#E4BC96" stroke="#000000" stroke-width="3" cx="128.654" cy="138.389" r="13.202"/>
	
		<ellipse transform="matrix(0.4105 0.9119 -0.9119 0.4105 211.4591 -31.8719)" fill="#E4BC96" stroke="#000000" stroke-width="3" cx="130.38" cy="147.609" rx="4.105" ry="9.853"/>
	<ellipse fill="#E4BC96" stroke="#000000" stroke-width="3" cx="121.707" cy="146.033" rx="4.343" ry="8.859"/>
	<path fill="#D59758" stroke="#000000" stroke-width="3" d="M35.279,125.754c-1.305,6.396-7.547,10.521-13.941,9.216l-6.456-1.315
		c-6.396-1.305-10.522-7.547-9.216-13.942l7.221-35.391c1.305-6.396,7.546-10.521,13.941-9.216l6.457,1.316
		c6.395,1.306,10.521,7.546,9.216,13.942L35.279,125.754z"/>
	<path fill="#D59758" stroke="#000000" stroke-width="3" d="M107.556,125.754c1.307,6.396,7.547,10.521,13.942,9.216l6.457-1.315
		c6.396-1.305,10.521-7.547,9.216-13.942L129.95,84.32c-1.306-6.396-7.547-10.521-13.941-9.216l-6.457,1.316
		c-6.395,1.306-10.521,7.546-9.217,13.942L107.556,125.754z"/>
	<path fill="#E4BC96" stroke="#000000" stroke-width="3" d="M112.831,129.54c0,7.468-6.056,13.522-13.521,13.522H43.662
		c-7.469,0-13.522-6.056-13.522-13.522V85.222c0-7.469,6.055-13.521,13.522-13.521H99.31c7.467,0,13.521,6.054,13.521,13.521V129.54
		z"/>
	<path fill="#00A0C6" stroke="#FFFFFF" stroke-width="3" stroke-linecap="round" d="M104.839,107.464
		c0,3.655-2.963,6.617-6.617,6.617H44.806c-3.653,0-6.616-2.962-6.616-6.617V85.777c0-3.654,2.963-6.617,6.616-6.617h53.416
		c3.654,0,6.617,2.963,6.617,6.617V107.464z"/>
	<path fill="#8B5C29" stroke="#000000" stroke-width="3.3872" d="M134.085,92.219c0.438,2.5-1.395,5.024-4.09,5.638l-5.308,1.21
		c-2.696,0.614-5.238-0.914-5.677-3.413l-0.862-4.918c-0.438-2.5,1.394-5.023,4.089-5.638l5.308-1.208
		c2.697-0.614,5.239,0.914,5.677,3.412L134.085,92.219z"/>
	<line fill="none" stroke="#000000" stroke-width="3.3872" x1="133.019" y1="87.216" x2="118.356" y2="90.558"/>
	<line fill="none" stroke="#000000" stroke-width="3.3872" x1="133.792" y1="91.68" x2="119.13" y2="95.021"/>
	<circle cx="47.732" cy="123.964" r="3.916"/>
	<circle cx="58.242" cy="123.964" r="3.916"/>
	<circle fill="#FFFFFF" stroke="#000000" stroke-width="3" cx="93.079" cy="123.541" r="3.916"/>
	<path fill="#D59758" stroke="#000000" stroke-width="3.3826" d="M40.894,142.385c0.455-5.104,3.545-9.051,7.292-9.051
		s6.837,3.947,7.292,9.051H40.894z"/>
	<path fill="#D59758" stroke="#000000" stroke-width="3.3826" d="M86.231,142.385c0.455-5.104,3.545-9.051,7.292-9.051
		s6.837,3.947,7.292,9.051H86.231z"/>
	<g>
		<path d="M91.195,11.691H51.722c-5.298,0-9.592,4.294-9.592,9.591v31.438c0,5.298,4.294,9.592,9.592,9.592
			c0,0,6.42-3.326,20.517-3.326s18.957,3.326,18.957,3.326c5.299,0,9.593-4.294,9.593-9.592V21.283
			C100.787,15.985,96.493,11.691,91.195,11.691L91.195,11.691z M50.98,58.26c-2.732-0.363-4.85-2.71-4.85-5.542V21.283
			c0-3.083,2.509-5.591,5.592-5.591h39.474c1.493,0,2.897,0.582,3.954,1.638s1.639,2.46,1.639,3.953v31.437
			c0,1.493-0.582,2.897-1.639,3.953c-0.847,0.848-1.917,1.389-3.076,1.57c-0.881-0.419-2.184-0.942-3.994-1.448
			c-4.302-1.201-9.63-1.81-15.841-1.81C60.357,54.984,53.533,57.213,50.98,58.26L50.98,58.26z"/>
	</g>
	<g>
		<path fill="#E4BC96" stroke="#000000" stroke-width="3" d="M95.802,7.061c0,0-10.877-5.249-24.296-5.249
			S47.169,7.061,47.169,7.061c-6.527,0-11.818,5.291-11.818,11.817V57.61c0,6.527,5.291,11.818,11.818,11.818h48.633
			c6.527,0,11.818-5.291,11.818-11.818V18.879C107.62,12.352,102.329,7.061,95.802,7.061z M100.788,52.719
			c0,5.298-4.294,9.591-9.593,9.591c0,0-4.86-3.326-18.957-3.326s-20.517,3.326-20.517,3.326c-5.298,0-9.592-4.293-9.592-9.591
			V21.282c0-5.297,4.294-9.591,9.592-9.591h39.473c5.299,0,9.593,4.294,9.594,9.592V52.719z"/>
		<path d="M91.195,11.691H51.722c-5.298,0-9.592,4.294-9.592,9.591v31.438c0,5.298,4.294,9.591,9.592,9.591
			c0,0,6.42-3.326,20.517-3.326s18.957,3.326,18.957,3.326c5.299,0,9.593-4.293,9.593-9.591V21.283
			C100.787,15.985,96.493,11.691,91.195,11.691z M96.788,52.719c0,1.493-0.582,2.897-1.639,3.953
			c-0.847,0.848-1.917,1.388-3.076,1.57c-0.881-0.418-2.184-0.942-3.994-1.448c-4.302-1.201-9.63-1.81-15.841-1.81
			c-11.882-0.001-18.705,2.228-21.259,3.275c-2.732-0.363-4.85-2.709-4.85-5.542V21.283c0-3.083,2.509-5.591,5.592-5.591h39.474
			c1.493,0,2.897,0.582,3.954,1.638s1.639,2.46,1.639,3.953V52.719z"/>
	</g>
	<g>
		<path fill="#E4BC96" stroke="#000000" stroke-width="3" d="M85.973,8.744c0,4-3.243,7.243-7.243,7.243H64.241
			c-4,0-7.244-3.243-7.244-7.243l0,0c0-4.001,3.244-7.244,7.244-7.244h14.487C82.729,1.5,85.973,4.743,85.973,8.744L85.973,8.744z"
			/>
		<circle cx="64.697" cy="8.548" r="3.916"/>
		<circle fill="#FFFFFF" stroke="#000000" stroke-width="3" cx="78.597" cy="8.548" r="3.916"/>
		<path fill="none" stroke="#FFFFFF" stroke-width="6" stroke-linecap="round" d="M86.878,20.051c0,0,5.994,2.605,6.385,6.385
			c0.339,3.272,0,25.274,0,25.274"/>
	</g>
	<path d="M84.464,68.692c-0.8-3.922-6.236-6.958-12.828-6.958c-6.59,0-12.028,3.036-12.828,6.958H84.464z"/>
</g>
</svg>
